pres
…
---

### Grabbing tweets

- `get_seed_tweets` grabs a batch of tweets *or* reads in seed tweets from a file if the file exists
- `get_more_tweets` checks if there are new tweets and, if so, pulls in the right number of them
- `get_tweets` runs `get_seed_tweets` if given a null `tbl` argument, otherwise runs `get_more_tweets`

```r
get_tweets()
```

```
## # A tibble: 50 x 5
##    text                   user_id status_id created_at          screen_name
##    <chr>                    <dbl>     <dbl> <dttm>              <chr>      
##  1 Queens *Water Rescue*…  5.60e8   1.09e18 2019-01-27 17:21:23 NYCFireWire
##  2 Brooklyn *77-75-2597*…  5.60e8   1.09e18 2019-01-27 16:10:36 NYCFireWire
##  3 Brooklyn *77-75-0805*…  5.60e8   1.09e18 2019-01-27 11:36:52 NYCFireWire
##  4 Staten Island *88-75-…  5.60e8   1.09e18 2019-01-27 11:10:49 NYCFireWire
##  5 Brooklyn *77-75-0689*…  5.60e8   1.09e18 2019-01-27 01:36:24 NYCFireWire
##  6 The FDNY’s diversity …  5.60e8   1.09e18 2019-01-27 01:12:13 NYCFireWire
##  7 Fairfax County Fire &…  5.60e8   1.09e18 2019-01-27 01:11:39 NYCFireWire
##  8 https://t.co/dnYTm4ZA…  5.60e8   1.09e18 2019-01-26 23:06:02 NYCFireWire
##  9 Queens *99-75-6833* 1…  5.60e8   1.09e18 2019-01-26 21:05:04 NYCFireWire
## 10 Queens *99-75-4187* 5…  5.60e8   1.09e18 2019-01-26 20:14:02 NYCFireWire
## # … with 40 more rows
```
…
---

### Getting addresses

```r
get_tweets() %>% 
  pull_addresses() %>% 
  select(street, borough, address, text)
```

```
## Source: local data frame [50 x 4]
## Groups: <by row>
## 
## # A tibble: 50 x 4
##    street         borough   address              text                      
##    <chr>          <chr>     <chr>                <chr>                     
##  1 Howard Beach … Queens    Howard Beach Motor … Queens *Water Rescue* How…
##  2 785 E 4th St … Brooklyn  785 E 4th St off Av… Brooklyn *77-75-2597* 785…
##  3 1259 Madison … Brooklyn  1259 Madison St, Br… Brooklyn *77-75-0805* 125…
##  4 280 Park Hill… Staten I… 280 Park Hill Ave o… Staten Island *88-75-0460…
##  5 188 Garvey Bl… Brooklyn  188 Garvey Blvd, Br… Brooklyn *77-75-0689* 188…
##  6 <NA>           <NA>      <NA>                 The FDNY’s diversity moni…
##  7 <NA>           <NA>      <NA>                 Fairfax County Fire &amp;…
##  8 <NA>           <NA>      <NA>                 https://t.co/dnYTm4ZAAU   
##  9 115-87 229 St  Queens    115-87 229 St, Quee… Queens *99-75-6833* 115-8…
## 10 54-02 Flushin… Queens    54-02 Flushing Ave,… Queens *99-75-4187* 54-02…
## # … with 40 more rows
```
…
