drake for Workflow Management in R
…
Caveat is that this analysis relies on the [rtweet](https://github.com/mkearney/rtweet) and [ggmap](https://github.com/dkahle/ggmap) packages.

To be able to run it in full you'll need a [Twitter API access token](https://rtweet.info/articles/auth.html) and [Google Maps Geocoding API key](https://developers.google.com/maps/documentation/geocoding/intro#Geocoding).

---

### Grabbing tweets

- `get_seed_tweets` grabs a batch of tweets *or* reads in seed tweets from a file if the file exists
- `get_more_tweets` checks if there are new tweets and, if so, pulls in the right number of them
- `get_tweets` runs `get_seed_tweets` if given a null `tbl` argument, otherwise runs `get_more_tweets`

```r
get_tweets()
## # A tibble: 50 x 5
##    text                 user_id status_id   created_at          screen_name
##    <chr>                <chr>   <chr>       <dttm>              <chr>      
##  1 We’ll have a cure f… 560024… 1090227942… 2019-01-29 07:39:31 NYCFireWire
##  2 Someone got access … 560024… 1090153246… 2019-01-29 02:42:42 NYCFireWire
##  3 Manhattan *66-75-15… 560024… 1090080741… 2019-01-28 21:54:36 NYCFireWire
##  4 Queens *99-75-9625*… 560024… 1090050618… 2019-01-28 19:54:54 NYCFireWire
##  5 Prayers for Houston… 560024… 1090033652… 2019-01-28 18:47:29 NYCFireWire
##  6 Manhattan *66-75-15… 560024… 1089961497… 2019-01-28 14:00:46 NYCFireWire
##  7 Queens *MVA/PIN* 11… 560024… 1089948361… 2019-01-28 13:08:34 NYCFireWire
##  8 Manhattan *Stuck El… 560024… 1089922223… 2019-01-28 11:24:42 NYCFireWire
##  9 Bronx *66-75-2722* … 560024… 1089753156… 2019-01-28 00:12:53 NYCFireWire
## 10 Eng.88 requesting N… 560024… 1089751644… 2019-01-28 00:06:53 NYCFireWire
## # … with 40 more rows
```
…
---

### Getting addresses

```r
get_tweets() %>% 
  pull_addresses() %>% 
  select(street, borough, address, text)
## Source: local data frame [50 x 4]
## Groups: <by row>
## 
## # A tibble: 50 x 4
##    street         borough  address            text                         
##    <chr>          <chr>    <chr>              <chr>                        
##  1 <NA>           <NA>     <NA>               We’ll have a cure for cancer…
##  2 <NA>           <NA>     <NA>               Someone got access to NNSS i…
##  3 260 Convent A… Manhatt… 260 Convent Ave, … Manhattan *66-75-1597* 260 C…
##  4 107-27 Atlant… Queens   107-27 Atlantic A… Queens *99-75-9625* 107-27 A…
##  5 <NA>           <NA>     <NA>               Prayers for Houston Police h…
##  6 240 W 139 St … Manhatt… 240 W 139 St off … Manhattan *66-75-1587* 240 W…
##  7 115 Ave &amp;… Queens   115 Ave &amp; 200… Queens *MVA/PIN* 115 Ave &am…
##  8 48 E 65 St of… Manhatt… 48 E 65 St off Pa… Manhattan *Stuck Elevator* 4…
##  9 14 Marcy Pl o… The Bro… 14 Marcy Pl off W… Bronx *66-75-2722* 14 Marcy …
## 10 <NA>           <NA>     <NA>               Eng.88 requesting NYPD ESU f…
## # … with 40 more rows
```
…
